^C:\USERS\YAROSLAV\DESKTOP\СЛАВА\УНИВЕР\4 КУРС\1 СЕМЕСТР\ТЕХНОЛОГИЯ ПРОГРАММИРОВАНИЯ\СЕМА\DGRAFER\DGRAFER\DGRAFER\DGRAFER\ARROW.CPP|C:\USERS\YAROSLAV\DESKTOP\СЛАВА\УНИВЕР\4 КУРС\1 СЕМЕСТР\ТЕХНОЛОГИЯ ПРОГРАММИРОВАНИЯ\СЕМА\DGRAFER\DGRAFER\DGRAFER\DGRAFER\DIAGRAMITEM.CPP|C:\USERS\YAROSLAV\DESKTOP\СЛАВА\УНИВЕР\4 КУРС\1 СЕМЕСТР\ТЕХНОЛОГИЯ ПРОГРАММИРОВАНИЯ\СЕМА\DGRAFER\DGRAFER\DGRAFER\DGRAFER\DIAGRAMSCENE.CPP|C:\USERS\YAROSLAV\DESKTOP\СЛАВА\УНИВЕР\4 КУРС\1 СЕМЕСТР\ТЕХНОЛОГИЯ ПРОГРАММИРОВАНИЯ\СЕМА\DGRAFER\DGRAFER\DGRAFER\DGRAFER\DIAGRAMTEXTITEM.CPP|C:\USERS\YAROSLAV\DESKTOP\СЛАВА\УНИВЕР\4 КУРС\1 СЕМЕСТР\ТЕХНОЛОГИЯ ПРОГРАММИРОВАНИЯ\СЕМА\DGRAFER\DGRAFER\DGRAFER\DGRAFER\GENERATEDFILES\RELEASE\MOC_DIAGRAMSCENE.CPP|C:\USERS\YAROSLAV\DESKTOP\СЛАВА\УНИВЕР\4 КУРС\1 СЕМЕСТР\ТЕХНОЛОГИЯ ПРОГРАММИРОВАНИЯ\СЕМА\DGRAFER\DGRAFER\DGRAFER\DGRAFER\GENERATEDFILES\RELEASE\MOC_DIAGRAMTEXTITEM.CPP|C:\USERS\YAROSLAV\DESKTOP\СЛАВА\УНИВЕР\4 КУРС\1 СЕМЕСТР\ТЕХНОЛОГИЯ ПРОГРАММИРОВАНИЯ\СЕМА\DGRAFER\DGRAFER\DGRAFER\DGRAFER\GENERATEDFILES\RELEASE\MOC_MAINWINDOW.CPP|C:\USERS\YAROSLAV\DESKTOP\СЛАВА\УНИВЕР\4 КУРС\1 СЕМЕСТР\ТЕХНОЛОГИЯ ПРОГРАММИРОВАНИЯ\СЕМА\DGRAFER\DGRAFER\DGRAFER\DGRAFER\MAIN.CPP|C:\USERS\YAROSLAV\DESKTOP\СЛАВА\УНИВЕР\4 КУРС\1 СЕМЕСТР\ТЕХНОЛОГИЯ ПРОГРАММИРОВАНИЯ\СЕМА\DGRAFER\DGRAFER\DGRAFER\DGRAFER\MAINWINDOW.CPP
C:\USERS\YAROSLAV\DESKTOP\слава\Универ\4 курс\1 семестр\Технология программирования\Сема\DGRAFER\DGRAFER\DGRAFER\DGRAFER\RELEASE\MAINWINDOW.OBJ
C:\USERS\YAROSLAV\DESKTOP\слава\Универ\4 курс\1 семестр\Технология программирования\Сема\DGRAFER\DGRAFER\DGRAFER\DGRAFER\RELEASE\MAIN.OBJ
C:\USERS\YAROSLAV\DESKTOP\слава\Универ\4 курс\1 семестр\Технология программирования\Сема\DGRAFER\DGRAFER\DGRAFER\DGRAFER\RELEASE\MOC_MAINWINDOW.OBJ
C:\USERS\YAROSLAV\DESKTOP\слава\Универ\4 курс\1 семестр\Технология программирования\Сема\DGRAFER\DGRAFER\DGRAFER\DGRAFER\RELEASE\MOC_DIAGRAMTEXTITEM.OBJ
C:\USERS\YAROSLAV\DESKTOP\слава\Универ\4 курс\1 семестр\Технология программирования\Сема\DGRAFER\DGRAFER\DGRAFER\DGRAFER\RELEASE\MOC_DIAGRAMSCENE.OBJ
C:\USERS\YAROSLAV\DESKTOP\слава\Универ\4 курс\1 семестр\Технология программирования\Сема\DGRAFER\DGRAFER\DGRAFER\DGRAFER\RELEASE\DIAGRAMTEXTITEM.OBJ
C:\USERS\YAROSLAV\DESKTOP\слава\Универ\4 курс\1 семестр\Технология программирования\Сема\DGRAFER\DGRAFER\DGRAFER\DGRAFER\RELEASE\DIAGRAMSCENE.OBJ
C:\USERS\YAROSLAV\DESKTOP\слава\Универ\4 курс\1 семестр\Технология программирования\Сема\DGRAFER\DGRAFER\DGRAFER\DGRAFER\RELEASE\DIAGRAMITEM.OBJ
C:\USERS\YAROSLAV\DESKTOP\слава\Универ\4 курс\1 семестр\Технология программирования\Сема\DGRAFER\DGRAFER\DGRAFER\DGRAFER\RELEASE\ARROW.OBJ
^C:\USERS\YAROSLAV\DESKTOP\СЛАВА\УНИВЕР\4 КУРС\1 СЕМЕСТР\ТЕХНОЛОГИЯ ПРОГРАММИРОВАНИЯ\СЕМА\DGRAFER\DGRAFER\DGRAFER\DGRAFER\GENERATEDFILES\QRC_MAINWINDOW.CPP
C:\USERS\YAROSLAV\DESKTOP\слава\Универ\4 курс\1 семестр\Технология программирования\Сема\DGRAFER\DGRAFER\DGRAFER\DGRAFER\RELEASE\QRC_MAINWINDOW.OBJ
^C:\USERS\YAROSLAV\DESKTOP\СЛАВА\УНИВЕР\4 КУРС\1 СЕМЕСТР\ТЕХНОЛОГИЯ ПРОГРАММИРОВАНИЯ\СЕМА\DGRAFER\DGRAFER\DGRAFER\DGRAFER\MAINWINDOW.CPP
C:\USERS\YAROSLAV\DESKTOP\слава\Универ\4 курс\1 семестр\Технология программирования\Сема\DGRAFER\DGRAFER\DGRAFER\DGRAFER\RELEASE\MAINWINDOW.OBJ
