^C:\USERS\YAROSLAV\DESKTOP\СЛАВА\УНИВЕР\4 КУРС\1 СЕМЕСТР\ТЕХНОЛОГИЯ ПРОГРАММИРОВАНИЯ\СЕМА\DGRAFER\DGRAFER\DGRAFER\DGRAFER\MAINWINDOW.H
C:\QT\4.8.5\BIN\MOC.EXE
^C:\USERS\YAROSLAV\DESKTOP\СЛАВА\УНИВЕР\4 КУРС\1 СЕМЕСТР\ТЕХНОЛОГИЯ ПРОГРАММИРОВАНИЯ\СЕМА\DGRAFER\DGRAFER\DGRAFER\DGRAFER\MAINWINDOW.UI
C:\QT\4.8.5\BIN\UIC.EXE
^C:\USERS\YAROSLAV\DESKTOP\СЛАВА\УНИВЕР\4 КУРС\1 СЕМЕСТР\ТЕХНОЛОГИЯ ПРОГРАММИРОВАНИЯ\СЕМА\DGRAFER\DGRAFER\DGRAFER\DGRAFER\DIAGRAMSCENE.H
C:\QT\4.8.5\BIN\MOC.EXE
^C:\USERS\YAROSLAV\DESKTOP\СЛАВА\УНИВЕР\4 КУРС\1 СЕМЕСТР\ТЕХНОЛОГИЯ ПРОГРАММИРОВАНИЯ\СЕМА\DGRAFER\DGRAFER\DGRAFER\DGRAFER\DIAGRAMTEXTITEM.H
C:\QT\4.8.5\BIN\MOC.EXE
^C:\USERS\YAROSLAV\DESKTOP\СЛАВА\УНИВЕР\4 КУРС\1 СЕМЕСТР\ТЕХНОЛОГИЯ ПРОГРАММИРОВАНИЯ\СЕМА\DGRAFER\DGRAFER\DGRAFER\DGRAFER\MAINWINDOW.QRC
