^C:\USERS\YAROSLAV\DESKTOP\СЛАВА\УНИВЕР\4 КУРС\1 СЕМЕСТР\ТЕХНОЛОГИЯ ПРОГРАММИРОВАНИЯ\СЕМА\DGRAFER\DGRAFER\DGRAFER\DGRAFER\RELEASE\ARROW.OBJ|C:\USERS\YAROSLAV\DESKTOP\СЛАВА\УНИВЕР\4 КУРС\1 СЕМЕСТР\ТЕХНОЛОГИЯ ПРОГРАММИРОВАНИЯ\СЕМА\DGRAFER\DGRAFER\DGRAFER\DGRAFER\RELEASE\DIAGRAMITEM.OBJ|C:\USERS\YAROSLAV\DESKTOP\СЛАВА\УНИВЕР\4 КУРС\1 СЕМЕСТР\ТЕХНОЛОГИЯ ПРОГРАММИРОВАНИЯ\СЕМА\DGRAFER\DGRAFER\DGRAFER\DGRAFER\RELEASE\DIAGRAMSCENE.OBJ|C:\USERS\YAROSLAV\DESKTOP\СЛАВА\УНИВЕР\4 КУРС\1 СЕМЕСТР\ТЕХНОЛОГИЯ ПРОГРАММИРОВАНИЯ\СЕМА\DGRAFER\DGRAFER\DGRAFER\DGRAFER\RELEASE\DIAGRAMTEXTITEM.OBJ|C:\USERS\YAROSLAV\DESKTOP\СЛАВА\УНИВЕР\4 КУРС\1 СЕМЕСТР\ТЕХНОЛОГИЯ ПРОГРАММИРОВАНИЯ\СЕМА\DGRAFER\DGRAFER\DGRAFER\DGRAFER\RELEASE\MAIN.OBJ|C:\USERS\YAROSLAV\DESKTOP\СЛАВА\УНИВЕР\4 КУРС\1 СЕМЕСТР\ТЕХНОЛОГИЯ ПРОГРАММИРОВАНИЯ\СЕМА\DGRAFER\DGRAFER\DGRAFER\DGRAFER\RELEASE\MAINWINDOW.OBJ|C:\USERS\YAROSLAV\DESKTOP\СЛАВА\УНИВЕР\4 КУРС\1 СЕМЕСТР\ТЕХНОЛОГИЯ ПРОГРАММИРОВАНИЯ\СЕМА\DGRAFER\DGRAFER\DGRAFER\DGRAFER\RELEASE\MOC_DIAGRAMSCENE.OBJ|C:\USERS\YAROSLAV\DESKTOP\СЛАВА\УНИВЕР\4 КУРС\1 СЕМЕСТР\ТЕХНОЛОГИЯ ПРОГРАММИРОВАНИЯ\СЕМА\DGRAFER\DGRAFER\DGRAFER\DGRAFER\RELEASE\MOC_DIAGRAMTEXTITEM.OBJ|C:\USERS\YAROSLAV\DESKTOP\СЛАВА\УНИВЕР\4 КУРС\1 СЕМЕСТР\ТЕХНОЛОГИЯ ПРОГРАММИРОВАНИЯ\СЕМА\DGRAFER\DGRAFER\DGRAFER\DGRAFER\RELEASE\MOC_MAINWINDOW.OBJ|C:\USERS\YAROSLAV\DESKTOP\СЛАВА\УНИВЕР\4 КУРС\1 СЕМЕСТР\ТЕХНОЛОГИЯ ПРОГРАММИРОВАНИЯ\СЕМА\DGRAFER\DGRAFER\DGRAFER\DGRAFER\RELEASE\QRC_MAINWINDOW.OBJ
/ERRORREPORT:PROMPT /OUT:"C:\Users\Yaroslav\Desktop\слава\Универ\4 курс\1 семестр\Технология программирования\Сема\Dgrafer\dgrafer\Dgrafer\Win32\Release\\Dgrafer.exe" /NOLOGO /LIBPATH:C:\Qt\4.8.5\lib qtmain.lib QtCore4.lib QtGui4.lib kernel32.lib user32.lib gdi32.lib winspool.lib comdlg32.lib advapi32.lib shell32.lib ole32.lib oleaut32.lib uuid.lib odbc32.lib odbccp32.lib /MANIFEST /ManifestFile:"Release\Dgrafer.exe.intermediate.manifest" /MANIFESTUAC:"level='asInvoker' uiAccess='false'" /PDB:"C:\Users\Yaroslav\Desktop\слава\Универ\4 курс\1 семестр\Технология программирования\Сема\Dgrafer\dgrafer\Dgrafer\Win32\Release\Dgrafer.pdb" /SUBSYSTEM:WINDOWS /TLBID:1 /DYNAMICBASE /NXCOMPAT /IMPLIB:"C:\Users\Yaroslav\Desktop\слава\Универ\4 курс\1 семестр\Технология программирования\Сема\Dgrafer\dgrafer\Dgrafer\Win32\Release\Dgrafer.lib" /MACHINE:X86 Release\arrow.obj
Release\diagramitem.obj
Release\diagramscene.obj
Release\DiagramTextItem.obj
Release\qrc_mainwindow.obj
Release\moc_diagramscene.obj
Release\moc_DiagramTextItem.obj
Release\moc_mainwindow.obj
Release\main.obj
Release\mainwindow.obj
