^C:\USERS\YAROSLAV\DESKTOP\СЛАВА\УНИВЕР\4 КУРС\1 СЕМЕСТР\ТЕХНОЛОГИЯ ПРОГРАММИРОВАНИЯ\СЕМА\DGRAFER\DGRAFER\DGRAFER\DGRAFER\DIAGRAMITEM.CPP
/c /I.\GeneratedFiles /I. /IC:\Qt\4.8.5\include /I.\GeneratedFiles\Debug /IC:\Qt\4.8.5\include\QtCore /IC:\Qt\4.8.5\include\QtGui /Zi /nologo /W1 /WX- /Od /Oy- /D UNICODE /D WIN32 /D QT_DLL /D QT_CORE_LIB /D QT_GUI_LIB /Gm- /EHsc /MDd /GS /fp:precise /Zc:wchar_t- /Zc:forScope /Fo"Debug\\" /Fd"Debug\vc100.pdb" /Gd /TP /analyze- /errorReport:prompt C:\USERS\YAROSLAV\DESKTOP\СЛАВА\УНИВЕР\4 КУРС\1 СЕМЕСТР\ТЕХНОЛОГИЯ ПРОГРАММИРОВАНИЯ\СЕМА\DGRAFER\DGRAFER\DGRAFER\DGRAFER\DIAGRAMITEM.CPP
^C:\USERS\YAROSLAV\DESKTOP\СЛАВА\УНИВЕР\4 КУРС\1 СЕМЕСТР\ТЕХНОЛОГИЯ ПРОГРАММИРОВАНИЯ\СЕМА\DGRAFER\DGRAFER\DGRAFER\DGRAFER\GENERATEDFILES\DEBUG\MOC_DIAGRAMTEXTITEM.CPP
/c /I.\GeneratedFiles /I. /IC:\Qt\4.8.5\include /I.\GeneratedFiles\Debug /IC:\Qt\4.8.5\include\QtCore /IC:\Qt\4.8.5\include\QtGui /Zi /nologo /W1 /WX- /Od /Oy- /D UNICODE /D WIN32 /D QT_DLL /D QT_CORE_LIB /D QT_GUI_LIB /Gm- /EHsc /MDd /GS /fp:precise /Zc:wchar_t- /Zc:forScope /Fo"Debug\\" /Fd"Debug\vc100.pdb" /Gd /TP /analyze- /errorReport:prompt C:\USERS\YAROSLAV\DESKTOP\СЛАВА\УНИВЕР\4 КУРС\1 СЕМЕСТР\ТЕХНОЛОГИЯ ПРОГРАММИРОВАНИЯ\СЕМА\DGRAFER\DGRAFER\DGRAFER\DGRAFER\GENERATEDFILES\DEBUG\MOC_DIAGRAMTEXTITEM.CPP
^C:\USERS\YAROSLAV\DESKTOP\СЛАВА\УНИВЕР\4 КУРС\1 СЕМЕСТР\ТЕХНОЛОГИЯ ПРОГРАММИРОВАНИЯ\СЕМА\DGRAFER\DGRAFER\DGRAFER\DGRAFER\GENERATEDFILES\QRC_MAINWINDOW.CPP
/c /I.\GeneratedFiles /I. /IC:\Qt\4.8.5\include /I.\GeneratedFiles\Debug /IC:\Qt\4.8.5\include\QtCore /IC:\Qt\4.8.5\include\QtGui /Zi /nologo /W1 /WX- /Od /Oy- /D UNICODE /D WIN32 /D QT_DLL /D QT_CORE_LIB /D QT_GUI_LIB /Gm- /EHsc /MDd /GS /fp:precise /Zc:wchar_t- /Zc:forScope /Fo"Debug\\" /Fd"Debug\vc100.pdb" /Gd /TP /analyze- /errorReport:prompt C:\USERS\YAROSLAV\DESKTOP\СЛАВА\УНИВЕР\4 КУРС\1 СЕМЕСТР\ТЕХНОЛОГИЯ ПРОГРАММИРОВАНИЯ\СЕМА\DGRAFER\DGRAFER\DGRAFER\DGRAFER\GENERATEDFILES\QRC_MAINWINDOW.CPP
^C:\USERS\YAROSLAV\DESKTOP\СЛАВА\УНИВЕР\4 КУРС\1 СЕМЕСТР\ТЕХНОЛОГИЯ ПРОГРАММИРОВАНИЯ\СЕМА\DGRAFER\DGRAFER\DGRAFER\DGRAFER\DIAGRAMTEXTITEM.CPP
/c /I.\GeneratedFiles /I. /IC:\Qt\4.8.5\include /I.\GeneratedFiles\Debug /IC:\Qt\4.8.5\include\QtCore /IC:\Qt\4.8.5\include\QtGui /Zi /nologo /W1 /WX- /Od /Oy- /D UNICODE /D WIN32 /D QT_DLL /D QT_CORE_LIB /D QT_GUI_LIB /Gm- /EHsc /MDd /GS /fp:precise /Zc:wchar_t- /Zc:forScope /Fo"Debug\\" /Fd"Debug\vc100.pdb" /Gd /TP /analyze- /errorReport:prompt C:\USERS\YAROSLAV\DESKTOP\СЛАВА\УНИВЕР\4 КУРС\1 СЕМЕСТР\ТЕХНОЛОГИЯ ПРОГРАММИРОВАНИЯ\СЕМА\DGRAFER\DGRAFER\DGRAFER\DGRAFER\DIAGRAMTEXTITEM.CPP
^C:\USERS\YAROSLAV\DESKTOP\СЛАВА\УНИВЕР\4 КУРС\1 СЕМЕСТР\ТЕХНОЛОГИЯ ПРОГРАММИРОВАНИЯ\СЕМА\DGRAFER\DGRAFER\DGRAFER\DGRAFER\GENERATEDFILES\DEBUG\MOC_DIAGRAMSCENE.CPP
/c /I.\GeneratedFiles /I. /IC:\Qt\4.8.5\include /I.\GeneratedFiles\Debug /IC:\Qt\4.8.5\include\QtCore /IC:\Qt\4.8.5\include\QtGui /Zi /nologo /W1 /WX- /Od /Oy- /D UNICODE /D WIN32 /D QT_DLL /D QT_CORE_LIB /D QT_GUI_LIB /Gm- /EHsc /MDd /GS /fp:precise /Zc:wchar_t- /Zc:forScope /Fo"Debug\\" /Fd"Debug\vc100.pdb" /Gd /TP /analyze- /errorReport:prompt C:\USERS\YAROSLAV\DESKTOP\СЛАВА\УНИВЕР\4 КУРС\1 СЕМЕСТР\ТЕХНОЛОГИЯ ПРОГРАММИРОВАНИЯ\СЕМА\DGRAFER\DGRAFER\DGRAFER\DGRAFER\GENERATEDFILES\DEBUG\MOC_DIAGRAMSCENE.CPP
^C:\USERS\YAROSLAV\DESKTOP\СЛАВА\УНИВЕР\4 КУРС\1 СЕМЕСТР\ТЕХНОЛОГИЯ ПРОГРАММИРОВАНИЯ\СЕМА\DGRAFER\DGRAFER\DGRAFER\DGRAFER\GENERATEDFILES\DEBUG\MOC_MAINWINDOW.CPP
/c /I.\GeneratedFiles /I. /IC:\Qt\4.8.5\include /I.\GeneratedFiles\Debug /IC:\Qt\4.8.5\include\QtCore /IC:\Qt\4.8.5\include\QtGui /Zi /nologo /W1 /WX- /Od /Oy- /D UNICODE /D WIN32 /D QT_DLL /D QT_CORE_LIB /D QT_GUI_LIB /Gm- /EHsc /MDd /GS /fp:precise /Zc:wchar_t- /Zc:forScope /Fo"Debug\\" /Fd"Debug\vc100.pdb" /Gd /TP /analyze- /errorReport:prompt C:\USERS\YAROSLAV\DESKTOP\СЛАВА\УНИВЕР\4 КУРС\1 СЕМЕСТР\ТЕХНОЛОГИЯ ПРОГРАММИРОВАНИЯ\СЕМА\DGRAFER\DGRAFER\DGRAFER\DGRAFER\GENERATEDFILES\DEBUG\MOC_MAINWINDOW.CPP
^C:\USERS\YAROSLAV\DESKTOP\СЛАВА\УНИВЕР\4 КУРС\1 СЕМЕСТР\ТЕХНОЛОГИЯ ПРОГРАММИРОВАНИЯ\СЕМА\DGRAFER\DGRAFER\DGRAFER\DGRAFER\ARROW.CPP
/c /I.\GeneratedFiles /I. /IC:\Qt\4.8.5\include /I.\GeneratedFiles\Debug /IC:\Qt\4.8.5\include\QtCore /IC:\Qt\4.8.5\include\QtGui /Zi /nologo /W1 /WX- /Od /Oy- /D UNICODE /D WIN32 /D QT_DLL /D QT_CORE_LIB /D QT_GUI_LIB /Gm- /EHsc /MDd /GS /fp:precise /Zc:wchar_t- /Zc:forScope /Fo"Debug\\" /Fd"Debug\vc100.pdb" /Gd /TP /analyze- /errorReport:prompt C:\USERS\YAROSLAV\DESKTOP\СЛАВА\УНИВЕР\4 КУРС\1 СЕМЕСТР\ТЕХНОЛОГИЯ ПРОГРАММИРОВАНИЯ\СЕМА\DGRAFER\DGRAFER\DGRAFER\DGRAFER\ARROW.CPP
^C:\USERS\YAROSLAV\DESKTOP\СЛАВА\УНИВЕР\4 КУРС\1 СЕМЕСТР\ТЕХНОЛОГИЯ ПРОГРАММИРОВАНИЯ\СЕМА\DGRAFER\DGRAFER\DGRAFER\DGRAFER\DIAGRAMSCENE.CPP
/c /I.\GeneratedFiles /I. /IC:\Qt\4.8.5\include /I.\GeneratedFiles\Debug /IC:\Qt\4.8.5\include\QtCore /IC:\Qt\4.8.5\include\QtGui /Zi /nologo /W1 /WX- /Od /Oy- /D UNICODE /D WIN32 /D QT_DLL /D QT_CORE_LIB /D QT_GUI_LIB /Gm- /EHsc /MDd /GS /fp:precise /Zc:wchar_t- /Zc:forScope /Fo"Debug\\" /Fd"Debug\vc100.pdb" /Gd /TP /analyze- /errorReport:prompt C:\USERS\YAROSLAV\DESKTOP\СЛАВА\УНИВЕР\4 КУРС\1 СЕМЕСТР\ТЕХНОЛОГИЯ ПРОГРАММИРОВАНИЯ\СЕМА\DGRAFER\DGRAFER\DGRAFER\DGRAFER\DIAGRAMSCENE.CPP
^C:\USERS\YAROSLAV\DESKTOP\СЛАВА\УНИВЕР\4 КУРС\1 СЕМЕСТР\ТЕХНОЛОГИЯ ПРОГРАММИРОВАНИЯ\СЕМА\DGRAFER\DGRAFER\DGRAFER\DGRAFER\MAIN.CPP
/c /I.\GeneratedFiles /I. /IC:\Qt\4.8.5\include /I.\GeneratedFiles\Debug /IC:\Qt\4.8.5\include\QtCore /IC:\Qt\4.8.5\include\QtGui /Zi /nologo /W1 /WX- /Od /Oy- /D UNICODE /D WIN32 /D QT_DLL /D QT_CORE_LIB /D QT_GUI_LIB /Gm- /EHsc /MDd /GS /fp:precise /Zc:wchar_t- /Zc:forScope /Fo"Debug\\" /Fd"Debug\vc100.pdb" /Gd /TP /analyze- /errorReport:prompt C:\USERS\YAROSLAV\DESKTOP\СЛАВА\УНИВЕР\4 КУРС\1 СЕМЕСТР\ТЕХНОЛОГИЯ ПРОГРАММИРОВАНИЯ\СЕМА\DGRAFER\DGRAFER\DGRAFER\DGRAFER\MAIN.CPP
^C:\USERS\YAROSLAV\DESKTOP\СЛАВА\УНИВЕР\4 КУРС\1 СЕМЕСТР\ТЕХНОЛОГИЯ ПРОГРАММИРОВАНИЯ\СЕМА\DGRAFER\DGRAFER\DGRAFER\DGRAFER\MAINWINDOW.CPP
/c /I.\GeneratedFiles /I. /IC:\Qt\4.8.5\include /I.\GeneratedFiles\Debug /IC:\Qt\4.8.5\include\QtCore /IC:\Qt\4.8.5\include\QtGui /Zi /nologo /W1 /WX- /Od /Oy- /D UNICODE /D WIN32 /D QT_DLL /D QT_CORE_LIB /D QT_GUI_LIB /Gm- /EHsc /MDd /GS /fp:precise /Zc:wchar_t- /Zc:forScope /Fo"Debug\\" /Fd"Debug\vc100.pdb" /Gd /TP /analyze- /errorReport:prompt C:\USERS\YAROSLAV\DESKTOP\СЛАВА\УНИВЕР\4 КУРС\1 СЕМЕСТР\ТЕХНОЛОГИЯ ПРОГРАММИРОВАНИЯ\СЕМА\DGRAFER\DGRAFER\DGRAFER\DGRAFER\MAINWINDOW.CPP
^C:\USERS\JULI\DESKTOP\ТРПО\ТРПО\DGRAFER\DGRAFER\ARROW.CPP
/c /I.\GeneratedFiles /I. /IC:\Qt\4.8.5\include /I.\GeneratedFiles\Debug /IC:\Qt\4.8.5\include\QtCore /IC:\Qt\4.8.5\include\QtGui /Zi /nologo /W1 /WX- /Od /Oy- /D UNICODE /D WIN32 /D QT_DLL /D QT_CORE_LIB /D QT_GUI_LIB /Gm- /EHsc /MDd /GS /fp:precise /Zc:wchar_t- /Zc:forScope /Fo"Debug\\" /Fd"Debug\vc100.pdb" /Gd /TP /analyze- /errorReport:prompt C:\USERS\JULI\DESKTOP\ТРПО\ТРПО\DGRAFER\DGRAFER\ARROW.CPP
^C:\USERS\JULI\DESKTOP\ТРПО\ТРПО\DGRAFER\DGRAFER\DIAGRAMITEM.CPP
/c /I.\GeneratedFiles /I. /IC:\Qt\4.8.5\include /I.\GeneratedFiles\Debug /IC:\Qt\4.8.5\include\QtCore /IC:\Qt\4.8.5\include\QtGui /Zi /nologo /W1 /WX- /Od /Oy- /D UNICODE /D WIN32 /D QT_DLL /D QT_CORE_LIB /D QT_GUI_LIB /Gm- /EHsc /MDd /GS /fp:precise /Zc:wchar_t- /Zc:forScope /Fo"Debug\\" /Fd"Debug\vc100.pdb" /Gd /TP /analyze- /errorReport:prompt C:\USERS\JULI\DESKTOP\ТРПО\ТРПО\DGRAFER\DGRAFER\DIAGRAMITEM.CPP
^C:\USERS\JULI\DESKTOP\ТРПО\ТРПО\DGRAFER\DGRAFER\DIAGRAMSCENE.CPP
/c /I.\GeneratedFiles /I. /IC:\Qt\4.8.5\include /I.\GeneratedFiles\Debug /IC:\Qt\4.8.5\include\QtCore /IC:\Qt\4.8.5\include\QtGui /Zi /nologo /W1 /WX- /Od /Oy- /D UNICODE /D WIN32 /D QT_DLL /D QT_CORE_LIB /D QT_GUI_LIB /Gm- /EHsc /MDd /GS /fp:precise /Zc:wchar_t- /Zc:forScope /Fo"Debug\\" /Fd"Debug\vc100.pdb" /Gd /TP /analyze- /errorReport:prompt C:\USERS\JULI\DESKTOP\ТРПО\ТРПО\DGRAFER\DGRAFER\DIAGRAMSCENE.CPP
^C:\USERS\JULI\DESKTOP\ТРПО\ТРПО\DGRAFER\DGRAFER\DIAGRAMTEXTITEM.CPP
/c /I.\GeneratedFiles /I. /IC:\Qt\4.8.5\include /I.\GeneratedFiles\Debug /IC:\Qt\4.8.5\include\QtCore /IC:\Qt\4.8.5\include\QtGui /Zi /nologo /W1 /WX- /Od /Oy- /D UNICODE /D WIN32 /D QT_DLL /D QT_CORE_LIB /D QT_GUI_LIB /Gm- /EHsc /MDd /GS /fp:precise /Zc:wchar_t- /Zc:forScope /Fo"Debug\\" /Fd"Debug\vc100.pdb" /Gd /TP /analyze- /errorReport:prompt C:\USERS\JULI\DESKTOP\ТРПО\ТРПО\DGRAFER\DGRAFER\DIAGRAMTEXTITEM.CPP
^C:\USERS\JULI\DESKTOP\ТРПО\ТРПО\DGRAFER\DGRAFER\GENERATEDFILES\DEBUG\MOC_DIAGRAMSCENE.CPP
/c /I.\GeneratedFiles /I. /IC:\Qt\4.8.5\include /I.\GeneratedFiles\Debug /IC:\Qt\4.8.5\include\QtCore /IC:\Qt\4.8.5\include\QtGui /Zi /nologo /W1 /WX- /Od /Oy- /D UNICODE /D WIN32 /D QT_DLL /D QT_CORE_LIB /D QT_GUI_LIB /Gm- /EHsc /MDd /GS /fp:precise /Zc:wchar_t- /Zc:forScope /Fo"Debug\\" /Fd"Debug\vc100.pdb" /Gd /TP /analyze- /errorReport:prompt C:\USERS\JULI\DESKTOP\ТРПО\ТРПО\DGRAFER\DGRAFER\GENERATEDFILES\DEBUG\MOC_DIAGRAMSCENE.CPP
^C:\USERS\JULI\DESKTOP\ТРПО\ТРПО\DGRAFER\DGRAFER\GENERATEDFILES\DEBUG\MOC_DIAGRAMTEXTITEM.CPP
/c /I.\GeneratedFiles /I. /IC:\Qt\4.8.5\include /I.\GeneratedFiles\Debug /IC:\Qt\4.8.5\include\QtCore /IC:\Qt\4.8.5\include\QtGui /Zi /nologo /W1 /WX- /Od /Oy- /D UNICODE /D WIN32 /D QT_DLL /D QT_CORE_LIB /D QT_GUI_LIB /Gm- /EHsc /MDd /GS /fp:precise /Zc:wchar_t- /Zc:forScope /Fo"Debug\\" /Fd"Debug\vc100.pdb" /Gd /TP /analyze- /errorReport:prompt C:\USERS\JULI\DESKTOP\ТРПО\ТРПО\DGRAFER\DGRAFER\GENERATEDFILES\DEBUG\MOC_DIAGRAMTEXTITEM.CPP
^C:\USERS\JULI\DESKTOP\ТРПО\ТРПО\DGRAFER\DGRAFER\GENERATEDFILES\DEBUG\MOC_MAINWINDOW.CPP
/c /I.\GeneratedFiles /I. /IC:\Qt\4.8.5\include /I.\GeneratedFiles\Debug /IC:\Qt\4.8.5\include\QtCore /IC:\Qt\4.8.5\include\QtGui /Zi /nologo /W1 /WX- /Od /Oy- /D UNICODE /D WIN32 /D QT_DLL /D QT_CORE_LIB /D QT_GUI_LIB /Gm- /EHsc /MDd /GS /fp:precise /Zc:wchar_t- /Zc:forScope /Fo"Debug\\" /Fd"Debug\vc100.pdb" /Gd /TP /analyze- /errorReport:prompt C:\USERS\JULI\DESKTOP\ТРПО\ТРПО\DGRAFER\DGRAFER\GENERATEDFILES\DEBUG\MOC_MAINWINDOW.CPP
^C:\USERS\JULI\DESKTOP\ТРПО\ТРПО\DGRAFER\DGRAFER\MAIN.CPP
/c /I.\GeneratedFiles /I. /IC:\Qt\4.8.5\include /I.\GeneratedFiles\Debug /IC:\Qt\4.8.5\include\QtCore /IC:\Qt\4.8.5\include\QtGui /Zi /nologo /W1 /WX- /Od /Oy- /D UNICODE /D WIN32 /D QT_DLL /D QT_CORE_LIB /D QT_GUI_LIB /Gm- /EHsc /MDd /GS /fp:precise /Zc:wchar_t- /Zc:forScope /Fo"Debug\\" /Fd"Debug\vc100.pdb" /Gd /TP /analyze- /errorReport:prompt C:\USERS\JULI\DESKTOP\ТРПО\ТРПО\DGRAFER\DGRAFER\MAIN.CPP
^C:\USERS\JULI\DESKTOP\ТРПО\ТРПО\DGRAFER\DGRAFER\MAINWINDOW.CPP
/c /I.\GeneratedFiles /I. /IC:\Qt\4.8.5\include /I.\GeneratedFiles\Debug /IC:\Qt\4.8.5\include\QtCore /IC:\Qt\4.8.5\include\QtGui /Zi /nologo /W1 /WX- /Od /Oy- /D UNICODE /D WIN32 /D QT_DLL /D QT_CORE_LIB /D QT_GUI_LIB /Gm- /EHsc /MDd /GS /fp:precise /Zc:wchar_t- /Zc:forScope /Fo"Debug\\" /Fd"Debug\vc100.pdb" /Gd /TP /analyze- /errorReport:prompt C:\USERS\JULI\DESKTOP\ТРПО\ТРПО\DGRAFER\DGRAFER\MAINWINDOW.CPP
^C:\USERS\JULI\DESKTOP\ТРПО\ТРПО\DGRAFER\DGRAFER\GENERATEDFILES\QRC_MAINWINDOW.CPP
/c /I.\GeneratedFiles /I. /IC:\Qt\4.8.5\include /I.\GeneratedFiles\Debug /IC:\Qt\4.8.5\include\QtCore /IC:\Qt\4.8.5\include\QtGui /Zi /nologo /W1 /WX- /Od /Oy- /D UNICODE /D WIN32 /D QT_DLL /D QT_CORE_LIB /D QT_GUI_LIB /Gm- /EHsc /MDd /GS /fp:precise /Zc:wchar_t- /Zc:forScope /Fo"Debug\\" /Fd"Debug\vc100.pdb" /Gd /TP /analyze- /errorReport:prompt C:\USERS\JULI\DESKTOP\ТРПО\ТРПО\DGRAFER\DGRAFER\GENERATEDFILES\QRC_MAINWINDOW.CPP
