^C:\USERS\YAROSLAV\DESKTOP\СЛАВА\УНИВЕР\4 КУРС\1 СЕМЕСТР\ТЕХНОЛОГИЯ ПРОГРАММИРОВАНИЯ\СЕМА\DGRAFER\DGRAFER\DGRAFER\DGRAFER\DEBUG\ARROW.OBJ|C:\USERS\YAROSLAV\DESKTOP\СЛАВА\УНИВЕР\4 КУРС\1 СЕМЕСТР\ТЕХНОЛОГИЯ ПРОГРАММИРОВАНИЯ\СЕМА\DGRAFER\DGRAFER\DGRAFER\DGRAFER\DEBUG\DIAGRAMITEM.OBJ|C:\USERS\YAROSLAV\DESKTOP\СЛАВА\УНИВЕР\4 КУРС\1 СЕМЕСТР\ТЕХНОЛОГИЯ ПРОГРАММИРОВАНИЯ\СЕМА\DGRAFER\DGRAFER\DGRAFER\DGRAFER\DEBUG\DIAGRAMSCENE.OBJ|C:\USERS\YAROSLAV\DESKTOP\СЛАВА\УНИВЕР\4 КУРС\1 СЕМЕСТР\ТЕХНОЛОГИЯ ПРОГРАММИРОВАНИЯ\СЕМА\DGRAFER\DGRAFER\DGRAFER\DGRAFER\DEBUG\DIAGRAMTEXTITEM.OBJ|C:\USERS\YAROSLAV\DESKTOP\СЛАВА\УНИВЕР\4 КУРС\1 СЕМЕСТР\ТЕХНОЛОГИЯ ПРОГРАММИРОВАНИЯ\СЕМА\DGRAFER\DGRAFER\DGRAFER\DGRAFER\DEBUG\MAIN.OBJ|C:\USERS\YAROSLAV\DESKTOP\СЛАВА\УНИВЕР\4 КУРС\1 СЕМЕСТР\ТЕХНОЛОГИЯ ПРОГРАММИРОВАНИЯ\СЕМА\DGRAFER\DGRAFER\DGRAFER\DGRAFER\DEBUG\MAINWINDOW.OBJ|C:\USERS\YAROSLAV\DESKTOP\СЛАВА\УНИВЕР\4 КУРС\1 СЕМЕСТР\ТЕХНОЛОГИЯ ПРОГРАММИРОВАНИЯ\СЕМА\DGRAFER\DGRAFER\DGRAFER\DGRAFER\DEBUG\MOC_DIAGRAMSCENE.OBJ|C:\USERS\YAROSLAV\DESKTOP\СЛАВА\УНИВЕР\4 КУРС\1 СЕМЕСТР\ТЕХНОЛОГИЯ ПРОГРАММИРОВАНИЯ\СЕМА\DGRAFER\DGRAFER\DGRAFER\DGRAFER\DEBUG\MOC_DIAGRAMTEXTITEM.OBJ|C:\USERS\YAROSLAV\DESKTOP\СЛАВА\УНИВЕР\4 КУРС\1 СЕМЕСТР\ТЕХНОЛОГИЯ ПРОГРАММИРОВАНИЯ\СЕМА\DGRAFER\DGRAFER\DGRAFER\DGRAFER\DEBUG\MOC_MAINWINDOW.OBJ|C:\USERS\YAROSLAV\DESKTOP\СЛАВА\УНИВЕР\4 КУРС\1 СЕМЕСТР\ТЕХНОЛОГИЯ ПРОГРАММИРОВАНИЯ\СЕМА\DGRAFER\DGRAFER\DGRAFER\DGRAFER\DEBUG\QRC_MAINWINDOW.OBJ
/ERRORREPORT:PROMPT /OUT:"C:\Users\Yaroslav\Desktop\слава\Универ\4 курс\1 семестр\Технология программирования\Сема\Dgrafer\dgrafer\Dgrafer\Win32\Debug\\Dgrafer.exe" /NOLOGO /LIBPATH:C:\Qt\4.8.5\lib qtmaind.lib QtCored4.lib QtGuid4.lib kernel32.lib user32.lib gdi32.lib winspool.lib comdlg32.lib advapi32.lib shell32.lib ole32.lib oleaut32.lib uuid.lib odbc32.lib odbccp32.lib /MANIFEST /ManifestFile:"Debug\Dgrafer.exe.intermediate.manifest" /MANIFESTUAC:"level='asInvoker' uiAccess='false'" /DEBUG /PDB:"C:\Users\Yaroslav\Desktop\слава\Универ\4 курс\1 семестр\Технология программирования\Сема\Dgrafer\dgrafer\Dgrafer\Win32\Debug\Dgrafer.pdb" /SUBSYSTEM:WINDOWS /TLBID:1 /DYNAMICBASE /NXCOMPAT /IMPLIB:"C:\Users\Yaroslav\Desktop\слава\Универ\4 курс\1 семестр\Технология программирования\Сема\Dgrafer\dgrafer\Dgrafer\Win32\Debug\Dgrafer.lib" /MACHINE:X86 Debug\arrow.obj
Debug\diagramitem.obj
Debug\diagramscene.obj
Debug\DiagramTextItem.obj
Debug\moc_diagramscene.obj
Debug\moc_DiagramTextItem.obj
Debug\moc_mainwindow.obj
Debug\qrc_mainwindow.obj
Debug\main.obj
Debug\mainwindow.obj
^C:\USERS\JULI\DESKTOP\ТРПО\ТРПО\DGRAFER\DGRAFER\DEBUG\ARROW.OBJ|C:\USERS\JULI\DESKTOP\ТРПО\ТРПО\DGRAFER\DGRAFER\DEBUG\DIAGRAMITEM.OBJ|C:\USERS\JULI\DESKTOP\ТРПО\ТРПО\DGRAFER\DGRAFER\DEBUG\DIAGRAMSCENE.OBJ|C:\USERS\JULI\DESKTOP\ТРПО\ТРПО\DGRAFER\DGRAFER\DEBUG\DIAGRAMTEXTITEM.OBJ|C:\USERS\JULI\DESKTOP\ТРПО\ТРПО\DGRAFER\DGRAFER\DEBUG\MAIN.OBJ|C:\USERS\JULI\DESKTOP\ТРПО\ТРПО\DGRAFER\DGRAFER\DEBUG\MAINWINDOW.OBJ|C:\USERS\JULI\DESKTOP\ТРПО\ТРПО\DGRAFER\DGRAFER\DEBUG\MOC_DIAGRAMSCENE.OBJ|C:\USERS\JULI\DESKTOP\ТРПО\ТРПО\DGRAFER\DGRAFER\DEBUG\MOC_DIAGRAMTEXTITEM.OBJ|C:\USERS\JULI\DESKTOP\ТРПО\ТРПО\DGRAFER\DGRAFER\DEBUG\MOC_MAINWINDOW.OBJ|C:\USERS\JULI\DESKTOP\ТРПО\ТРПО\DGRAFER\DGRAFER\DEBUG\QRC_MAINWINDOW.OBJ
/ERRORREPORT:PROMPT /OUT:"C:\Users\JULI\Desktop\ТРПО\ТРПО\Dgrafer\Win32\Debug\\Dgrafer.exe" /NOLOGO /LIBPATH:C:\Qt\4.8.5\lib qtmaind.lib QtCored4.lib QtGuid4.lib kernel32.lib user32.lib gdi32.lib winspool.lib comdlg32.lib advapi32.lib shell32.lib ole32.lib oleaut32.lib uuid.lib odbc32.lib odbccp32.lib /MANIFEST /ManifestFile:"Debug\Dgrafer.exe.intermediate.manifest" /MANIFESTUAC:"level='asInvoker' uiAccess='false'" /DEBUG /PDB:"C:\Users\JULI\Desktop\ТРПО\ТРПО\Dgrafer\Win32\Debug\Dgrafer.pdb" /SUBSYSTEM:WINDOWS /TLBID:1 /DYNAMICBASE /NXCOMPAT /IMPLIB:"C:\Users\JULI\Desktop\ТРПО\ТРПО\Dgrafer\Win32\Debug\Dgrafer.lib" /MACHINE:X86 Debug\arrow.obj
Debug\diagramitem.obj
Debug\diagramscene.obj
Debug\DiagramTextItem.obj
Debug\moc_diagramscene.obj
Debug\moc_DiagramTextItem.obj
Debug\moc_mainwindow.obj
Debug\qrc_mainwindow.obj
Debug\main.obj
Debug\mainwindow.obj
