^C:\USERS\YAROSLAV\DESKTOP\СЛАВА\УНИВЕР\4 КУРС\1 СЕМЕСТР\ТЕХНОЛОГИЯ ПРОГРАММИРОВАНИЯ\СЕМА\DGRAFER\DGRAFER\DGRAFER\DGRAFER\DEBUG\DGRAFER.EXE.INTERMEDIATE.MANIFEST
C:\USERS\YAROSLAV\DESKTOP\слава\Универ\4 курс\1 семестр\Технология программирования\Сема\DGRAFER\DGRAFER\DGRAFER\WIN32\DEBUG\DGRAFER.EXE
^C:\USERS\JULI\DESKTOP\ТРПО\ТРПО\DGRAFER\DGRAFER\DEBUG\DGRAFER.EXE.INTERMEDIATE.MANIFEST
C:\USERS\JULI\DESKTOP\ТРПО\ТРПО\DGRAFER\WIN32\DEBUG\DGRAFER.EXE
